tb_pe_quire.vcd
$date
	Tue Jun 30 11:20:13 2026
$end
$version
	Icarus Verilog
$end
$timescale
	1ps
$end
$scope module tb_pe_quire $end
$var wire 128 ! psum_in [127:0] $end
$var wire 1 " psum_nar_in $end
$var wire 8 # weight_out [7:0] $end
$var wire 128 $ quire_out [127:0] $end
$var wire 128 % psum_out [127:0] $end
$var wire 1 & psum_nar_out $end
$var wire 8 ' pe_output [7:0] $end
$var wire 1 ( is_nar $end
$var wire 8 ) input_out [7:0] $end
$var parameter 32 * ES $end
$var parameter 32 + N $end
$var parameter 8 , POSIT_3P5 $end
$var parameter 8 - POSIT_HALF $end
$var parameter 8 . POSIT_NAR $end
$var parameter 8 / POSIT_ONE $end
$var parameter 8 0 POSIT_THREE $end
$var parameter 8 1 POSIT_TWO $end
$var parameter 8 2 POSIT_ZERO $end
$var parameter 32 3 QF $end
$var parameter 128 4 QUIRE_3P5 $end
$var parameter 128 5 QUIRE_HALF $end
$var parameter 128 6 QUIRE_ONE $end
$var parameter 128 7 QUIRE_THREE $end
$var parameter 128 8 QUIRE_TWO $end
$var parameter 128 9 QUIRE_ZERO $end
$var parameter 32 : QW $end
$var reg 1 ; clear_acc $end
$var reg 1 < clk $end
$var reg 8 = input_in [7:0] $end
$var reg 1 > pe_en $end
$var reg 1 ? reset $end
$var reg 8 @ weight_in [7:0] $end
$var reg 1 A wshift $end
$var integer 32 B errors [31:0] $end
$scope module DUT $end
$var wire 1 ; clear_acc $end
$var wire 1 < clk $end
$var wire 8 C input_in [7:0] $end
$var wire 8 D input_out [7:0] $end
$var wire 1 ( is_nar $end
$var wire 1 > pe_en $end
$var wire 128 E psum_in [127:0] $end
$var wire 1 " psum_nar_in $end
$var wire 1 & psum_nar_out $end
$var wire 128 F psum_out [127:0] $end
$var wire 128 G quire_out [127:0] $end
$var wire 1 ? reset $end
$var wire 8 H weight_in [7:0] $end
$var wire 8 I weight_out [7:0] $end
$var wire 1 A wshift $end
$var wire 1 J zero_b $end
$var wire 1 K zero_a $end
$var wire 1 L sign_b $end
$var wire 1 M sign_a $end
$var wire 8 N pe_output [7:0] $end
$var wire 1 O nar_b $end
$var wire 1 P nar_a $end
$var wire 4 Q k_b [3:0] $end
$var wire 4 R k_a [3:0] $end
$var wire 8 S frac_b [7:0] $end
$var wire 8 T frac_a [7:0] $end
$var wire 4 U flen_b [3:0] $end
$var wire 4 V flen_a [3:0] $end
$var wire 1 W exp_b $end
$var wire 1 X exp_a $end
$var parameter 32 Y ES $end
$var parameter 32 Z N $end
$var parameter 32 [ PROD_W $end
$var parameter 32 \ QF $end
$var parameter 32 ] QW $end
$var parameter 32 ^ SCALE_W $end
$var reg 128 _ abs_quire [127:0] $end
$var reg 128 ` aligned_product [127:0] $end
$var reg 1 a enc_exp $end
$var reg 4 b enc_flen [3:0] $end
$var reg 8 c enc_frac [7:0] $end
$var reg 4 d enc_k [3:0] $end
$var reg 1 e enc_nar $end
$var reg 1 f enc_sign $end
$var reg 1 g enc_zero $end
$var reg 8 h input_reg [7:0] $end
$var reg 9 i mant_a [8:0] $end
$var reg 9 j mant_b [8:0] $end
$var reg 1 k nar_out_reg $end
$var reg 1 l nar_pipe_reg $end
$var reg 128 m norm_quire [127:0] $end
$var reg 18 n product_mag [17:0] $end
$var reg 128 o product_reg [127:0] $end
$var reg 8 p product_scale [7:0] $end
$var reg 128 q product_term [127:0] $end
$var reg 128 r psum_out_reg [127:0] $end
$var reg 128 s psum_pipe_reg [127:0] $end
$var reg 8 t result_scale [7:0] $end
$var reg 8 u scale_a [7:0] $end
$var reg 8 v scale_b [7:0] $end
$var reg 8 w weight_reg [7:0] $end
$var integer 32 x e_int [31:0] $end
$var integer 32 y i [31:0] $end
$var integer 32 z k_int [31:0] $end
$var integer 32 { lead_pos [31:0] $end
$var integer 32 | norm_shift [31:0] $end
$var integer 32 } quire_shift [31:0] $end
$scope function highest_one_pos $end
$var reg 128 ~ value [127:0] $end
$var integer 32 !" j [31:0] $end
$upscope $end
$scope module DEC_A $end
$var wire 8 "" posit_in [7:0] $end
$var parameter 32 #" ES $end
$var parameter 32 $" N $end
$var reg 1 %" done $end
$var reg 1 X exponent $end
$var reg 4 &" frac_len [3:0] $end
$var reg 8 '" fraction [7:0] $end
$var reg 1 P is_nar $end
$var reg 1 K is_zero $end
$var reg 4 (" k [3:0] $end
$var reg 8 )" mag [7:0] $end
$var reg 1 *" regime_bit $end
$var reg 1 M sign $end
$var integer 32 +" exp_start [31:0] $end
$var integer 32 ," frac_start [31:0] $end
$var integer 32 -" i [31:0] $end
$var integer 32 ." raw_frac_len [31:0] $end
$var integer 32 /" run_length [31:0] $end
$upscope $end
$scope module DEC_B $end
$var wire 8 0" posit_in [7:0] $end
$var parameter 32 1" ES $end
$var parameter 32 2" N $end
$var reg 1 3" done $end
$var reg 1 W exponent $end
$var reg 4 4" frac_len [3:0] $end
$var reg 8 5" fraction [7:0] $end
$var reg 1 O is_nar $end
$var reg 1 J is_zero $end
$var reg 4 6" k [3:0] $end
$var reg 8 7" mag [7:0] $end
$var reg 1 8" regime_bit $end
$var reg 1 L sign $end
$var integer 32 9" exp_start [31:0] $end
$var integer 32 :" frac_start [31:0] $end
$var integer 32 ;" i [31:0] $end
$var integer 32 <" raw_frac_len [31:0] $end
$var integer 32 =" run_length [31:0] $end
$upscope $end
$scope module ENC $end
$var wire 1 a exponent $end
$var wire 4 >" frac_len [3:0] $end
$var wire 8 ?" fraction [7:0] $end
$var wire 1 e is_nar $end
$var wire 1 g is_zero $end
$var wire 4 @" k [3:0] $end
$var wire 1 f sign $end
$var parameter 32 A" ES $end
$var parameter 32 B" N $end
$var reg 8 C" mag [7:0] $end
$var reg 8 D" posit_out [7:0] $end
$var integer 32 E" i [31:0] $end
$var integer 32 F" idx [31:0] $end
$var integer 32 G" reg_len [31:0] $end
$upscope $end
$upscope $end
$scope task check_state $end
$var reg 8 H" expected_input_out [7:0] $end
$var reg 1 I" expected_nar $end
$var reg 8 J" expected_pe_output [7:0] $end
$var reg 128 K" expected_quire [127:0] $end
$var reg 8 L" expected_weight_out [7:0] $end
$var reg 512 M" name [511:0] $end
$upscope $end
$scope task clear_pe_acc $end
$var reg 8 N" expected_weight [7:0] $end
$upscope $end
$scope task load_weight $end
$var reg 8 O" weight [7:0] $end
$upscope $end
$scope task stream_activation $end
$var reg 8 P" activation [7:0] $end
$var reg 8 Q" expected_output_after [7:0] $end
$var reg 8 R" expected_output_before [7:0] $end
$var reg 128 S" expected_quire_after [127:0] $end
$var reg 128 T" expected_quire_before [127:0] $end
$var reg 512 U" name [511:0] $end
$upscope $end
$upscope $end
$enddefinitions $end
$comment Show the parameter values. $end
$dumpall
b1000 B"
b1 A"
b1000 2"
b1 1"
b1000 $"
b1 #"
b1000 ^
b10000000 ]
b1000000 \
b10010 [
b1000 Z
b1 Y
b10000000 :
b0 9
b100000000000000000000000000000000000000000000000000000000000000000 8
b110000000000000000000000000000000000000000000000000000000000000000 7
b10000000000000000000000000000000000000000000000000000000000000000 6
b1000000000000000000000000000000000000000000000000000000000000000 5
b111000000000000000000000000000000000000000000000000000000000000000 4
b1000000 3
b0 2
b1010000 1
b1011000 0
b1000000 /
b10000000 .
b110000 -
b1011100 ,
b1000 +
b1 *
$end
#0
$dumpvars
bx U"
bx T"
bx S"
bx R"
bx Q"
bx P"
bx O"
bx N"
bx M"
bx L"
bx K"
bx J"
xI"
bx H"
bx G"
bx F"
bx E"
bx D"
bx C"
bx @"
bx ?"
bx >"
bx ="
bx <"
bx ;"
bx :"
bx 9"
x8"
bx 7"
bx 6"
bx 5"
bx 4"
x3"
bx 0"
bx /"
bx ."
bx -"
bx ,"
bx +"
x*"
bx )"
bx ("
bx '"
bx &"
x%"
bx ""
bx !"
bx ~
bx }
bx |
bx {
bx z
bx y
bx x
bx w
bx v
bx u
bx t
bx s
bx r
bx q
bx p
bx o
bx n
bx m
xl
xk
bx j
bx i
bx h
xg
xf
xe
bx d
bx c
bx b
xa
bx `
bx _
xX
xW
bx V
bx U
bx T
bx S
bx R
bx Q
xP
xO
bx N
xM
xL
xK
xJ
bx I
b0 H
bx G
bx F
b0 E
bx D
b0 C
b0 B
0A
b0 @
1?
0>
b0 =
0<
0;
bx )
x(
bx '
x&
bx %
bx $
bx #
0"
b0 !
$end
#5000
b0 q
b0 `
b110000 }
b0 p
b0 v
b0 u
b10000000000000000 n
b100000000 j
b100000000 i
b0 G"
b0 F"
b0 '
b0 N
b0 D"
b0 C"
b0 ."
b0 ,"
b0 +"
b0 /"
0%"
0*"
b0 )"
b0 V
b0 &"
b0 T
b0 '"
0X
b0 R
b0 ("
0P
1K
0M
b0 <"
b0 :"
b0 9"
b0 ="
03"
08"
b0 7"
b0 U
b0 4"
b0 S
b0 5"
0W
b0 Q
b0 6"
0O
1J
0L
b0 x
b0 z
b0 |
b11111111111111111111111111111111 {
b0 t
b0 m
b0 _
b0 b
b0 >"
b0 c
b0 ?"
0a
b0 d
b0 @"
0e
1g
0f
b0 )
b0 D
b0 h
b0 ""
b0 #
b0 I
b0 w
b0 0"
0&
0(
0k
b0 %
b0 F
b0 $
b0 G
b0 r
0l
b0 s
b0 o
1<
#10000
0<
#15000
1<
#16000
b1000000 @
b1000000 H
1A
b1000000 O"
b101010000110001001000000011101000100000010100100110010101110011011001010111010000100000011000110110110001100101011000010111001001110011001000000101000001000101001011010111000101110101011010010111001001100101001000000111001101110100011000010111010001100101 M"
0I"
b0 J"
b0 K"
b0 L"
b0 H"
0?
#20000
0<
#25000
b100 <"
b100 :"
b11 9"
13"
b1 ="
b0 ;"
18"
b1000000 7"
0J
b1000000 #
b1000000 I
b1000000 w
b1000000 0"
1<
#26000
1;
b1000000 N"
b100110001101111011000010110010000100000011101110110010101101001011001110110100001110100 M"
b1000000 L"
b0 @
b0 H
0A
#30000
0<
#35000
1<
#36000
b1000000 =
b1000000 C
1>
b10101000011001000100000001110100010000001000011011000010111000001110100011101010111001001100101001000000110000101100011011101000110100101110110011000010111010001101001011011110110111000100000001100010010111000110000 U"
b1000000 Q"
b10000000000000000000000000000000000000000000000000000000000000000 S"
b0 R"
b0 T"
b1000000 P"
b100001101101100011001010110000101110010001000000110000101100011011000110111010101101101011101010110110001100001011101000110111101110010 M"
0;
#40000
0<
#45000
b10000000000000000000000000000000000000000000000000000000000000000 q
b10000000000000000000000000000000000000000000000000000000000000000 `
b100 ."
b100 ,"
b11 +"
1%"
b1 /"
b0 -"
1*"
b1000000 )"
0K
b1000000 )
b1000000 D
b1000000 h
b1000000 ""
1<
#46000
b10101000011001000100000001110100010000001000011011000010111000001110100011101010111001001100101001000000110000101100011011101000110100101110110011000010111010001101001011011110110111000100000001100010010111000110000 M"
b1000000 H"
b0 =
b0 C
#50000
0<
#55000
b0 q
b0 `
1K
b0 ."
b0 ,"
b0 +"
b0 /"
0%"
0*"
b0 )"
b10000000000000000000000000000000000000000000000000000000000000000 o
b0 )
b0 D
b0 h
b0 ""
1<
#56000
b1010000 =
b1010000 C
b10101000011001100100000001110100010000001000011011000010111000001110100011101010111001001100101001000000110000101100011011101000110100101110110011000010111010001101001011011110110111000100000001100100010111000110000 U"
b1011000 Q"
b110000000000000000000000000000000000000000000000000000000000000000 S"
b1000000 R"
b10000000000000000000000000000000000000000000000000000000000000000 T"
b1010000 P"
b1 B
b100011001101100011101010111001101101000001000000111001001100101011001110110100101110011011101000110010101110010011001010110010000100000011000010110001101110100011010010111011001100001011101000110100101101111011011100010000001101001011011100111010001101111001000000111000101110101011010010111001001100101 M"
b1000000 J"
b10000000000000000000000000000000000000000000000000000000000000000 K"
b0 H"
#60000
0<
#65000
b100000000000000000000000000000000000000000000000000000000000000000 q
b100000000000000000000000000000000000000000000000000000000000000000 `
b110001 }
b1 p
b1 u
b1000000 '
b1000000 N
b1000000 D"
b1000000 C"
b0 E"
b1 G"
b11 F"
b100 ."
b100 ,"
1X
b11 +"
1%"
b0 -"
b1 /"
1*"
b1010000 )"
0K
b1000 y
b100000000 m
b11111111111111111111111111001000 |
b1000000 {
b10000000 !"
b10000000000000000000000000000000000000000000000000000000000000000 ~
b10000000000000000000000000000000000000000000000000000000000000000 _
0g
b1010000 )
b1010000 D
b1010000 h
b1010000 ""
b10000000000000000000000000000000000000000000000000000000000000000 %
b10000000000000000000000000000000000000000000000000000000000000000 F
b10000000000000000000000000000000000000000000000000000000000000000 $
b10000000000000000000000000000000000000000000000000000000000000000 G
b10000000000000000000000000000000000000000000000000000000000000000 r
b0 o
1<
#66000
b10101000011001100100000001110100010000001000011011000010111000001110100011101010111001001100101001000000110000101100011011101000110100101110110011000010111010001101001011011110110111000100000001100100010111000110000 M"
b1010000 H"
b0 =
b0 C
#70000
0<
#75000
b0 G"
b0 F"
b0 '
b0 N
b0 D"
b0 C"
b0 q
b0 `
b110000 }
b0 p
b0 u
1g
b0 |
b11111111111111111111111111111111 {
b0 m
b0 _
1K
b0 ."
b0 ,"
b0 +"
b0 /"
0%"
0*"
b0 )"
0X
b0 %
b0 F
b0 $
b0 G
b0 r
b100000000000000000000000000000000000000000000000000000000000000000 o
b0 )
b0 D
b0 h
b0 ""
1<
#76000
b110000 =
b110000 C
b10101000011010000100000001110100010000001000011011000010111000001110100011101010111001001100101001000000110000101100011011101000110100101110110011000010111010001101001011011110110111000100000001100000010111000110101 U"
b1011100 Q"
b111000000000000000000000000000000000000000000000000000000000000000 S"
b1011000 R"
b110000000000000000000000000000000000000000000000000000000000000000 T"
b110000 P"
b10 B
b100011001101100011101010111001101101000001000000111001001100101011001110110100101110011011101000110010101110010011001010110010000100000011000010110001101110100011010010111011001100001011101000110100101101111011011100010000001101001011011100111010001101111001000000111000101110101011010010111001001100101 M"
b1011000 J"
b110000000000000000000000000000000000000000000000000000000000000000 K"
b0 H"
#80000
0<
#85000
b1000000000000000000000000000000000000000000000000000000000000000 q
b1000000000000000000000000000000000000000000000000000000000000000 `
b101111 }
b11111111 p
b11111111 u
b1010000 '
b1010000 N
b1010000 D"
b0 E"
b1010000 C"
b1 G"
b11 F"
b100 ."
b100 ,"
1X
b11 +"
b1111 R
b1111 ("
1%"
b0 -"
b1 /"
b110000 )"
0K
b1000 y
1a
b1 x
b100000000 m
b11111111111111111111111111000111 |
b1 t
b1000001 {
b10000000 !"
b100000000000000000000000000000000000000000000000000000000000000000 ~
b100000000000000000000000000000000000000000000000000000000000000000 _
0g
b110000 )
b110000 D
b110000 h
b110000 ""
b100000000000000000000000000000000000000000000000000000000000000000 %
b100000000000000000000000000000000000000000000000000000000000000000 F
b100000000000000000000000000000000000000000000000000000000000000000 $
b100000000000000000000000000000000000000000000000000000000000000000 G
b100000000000000000000000000000000000000000000000000000000000000000 r
b0 o
1<
#86000
b11 B
b10101000011010000100000001110100010000001000011011000010111000001110100011101010111001001100101001000000110000101100011011101000110100101110110011000010111010001101001011011110110111000100000001100000010111000110101 M"
b110000 H"
b0 =
b0 C
#90000
0<
#95000
b0 G"
b0 F"
b0 '
b0 N
b0 D"
b0 C"
b0 q
b0 `
b110000 }
b0 p
b0 u
1g
b0 x
b0 |
b11111111111111111111111111111111 {
b0 t
b0 m
b0 _
0a
1K
b0 ."
b0 ,"
b0 +"
b0 /"
0%"
b0 )"
0X
b0 R
b0 ("
b0 %
b0 F
b0 $
b0 G
b0 r
b1000000000000000000000000000000000000000000000000000000000000000 o
b0 )
b0 D
b0 h
b0 ""
1<
#96000
b1010000 =
b1010000 C
0>
b100 B
b100011001101100011101010111001101101000001000000111001001100101011001110110100101110011011101000110010101110010011001010110010000100000011000010110001101110100011010010111011001100001011101000110100101101111011011100010000001101001011011100111010001101111001000000111000101110101011010010111001001100101 M"
b1011100 J"
b111000000000000000000000000000000000000000000000000000000000000000 K"
b0 H"
#100000
0<
#105000
1<
#106000
b10000000 =
b10000000 C
1>
b101 B
b1010100001101010010000000111010001000000101000001000101001000000110010001101001011100110110000101100010011011000110010101100100001000000110100001101111011011000110010001110011001000000110000101100011011101000110100101110110011000010111010001101001011011110110111000100000011100100110010101100111011010010111001101110100011001010111001000100000011000010110111001100100001000000111000101110101011010010111001001100101 M"
#110000
0<
#115000
b110000 '
b110000 N
b110000 D"
b110000 C"
b0 E"
b1 G"
b11 F"
b1000 y
1a
b1111 d
b1111 @"
b1 x
b11111111111111111111111111111111 z
b100000000 m
b11111111111111111111111111001001 |
b11111111 t
b111111 {
b10000000 !"
b1000000000000000000000000000000000000000000000000000000000000000 ~
b1000000000000000000000000000000000000000000000000000000000000000 _
0g
1P
0K
b1000000000000000000000000000000000000000000000000000000000000000 %
b1000000000000000000000000000000000000000000000000000000000000000 F
b1000000000000000000000000000000000000000000000000000000000000000 $
b1000000000000000000000000000000000000000000000000000000000000000 G
b1000000000000000000000000000000000000000000000000000000000000000 r
b0 o
b10000000 )
b10000000 D
b10000000 h
b10000000 ""
1<
#116000
b110 B
b10101000011011000100000001110100010000001000011011000010111000001110100011101010111001001100101001000000100111001100001010100100010000001100001011000110111010001101001011101100110000101110100011010010110111101101110 M"
b10000000 H"
b0 =
b0 C
#120000
0<
#125000
b0 G"
b0 F"
b0 '
b0 N
b0 D"
b0 C"
1K
0P
1g
b0 x
b0 z
b0 |
b11111111111111111111111111111111 {
b0 t
b0 m
b0 _
0a
b0 d
b0 @"
b0 )
b0 D
b0 h
b0 ""
b0 %
b0 F
b0 $
b0 G
b0 r
1l
1<
#126000
0>
1;
b111 B
b101010000110111001000000011101000100000010011100110000101010010001000000111000001101111011010010111001101101111011011100111001100100000011100010111010101101001011100100110010100100000011011110111010101110100011100000111010101110100 M"
1I"
b10000000 J"
b0 H"
#130000
0<
#135000
0l
1<
#136000
b100001101101100011001010110000101110010001000000110000101100011011000110111010101101101011101010110110001100001011101000110111101110010 M"
0I"
b0 J"
b0 K"
0;
